Automated Web Scraping with R
…
---
## Static Pages &mdash; `rvest` &mdash; `html_table`

Use the `html_table()` function to get the text content of table elements

```r
bow("https://luzpar.netlify.app/members/") %>%
  scrape() %>%
  html_elements(css = "table") %>% 
  `html_table()`
```

```
## [[1]]
## # A tibble: 100 x 3
##   Member           Constituency  Party      
##   <chr>            <chr>         <chr>      
##  1 Arthur Ali       Mühlshafen    Liberal    
##  2 Chris Antony     Benwerder     Labour     
##  3 Chloë Bakker     Steffisfelden Labour     
##  4 Rose Barnes      Dillon        Liberal    
##  5 Emilia Bauer     Kilnard       Green      
##  6 Wilma Baumann    Granderry     Green      
##  7 Matteo Becker    Enkmelo       Labour     
##  8 Patricia Bernard Gänsernten    Labour     
##  9 Lina Booth       Leonrau       Liberal    
## 10 Sophie Bos       Zotburg       Independent
## # ... with 90 more rows
…
*df <- as_tibble(do.call(rbind, temp_list))
```

---
## Static Pages &mdash; Crawling &mdash; Example

Check the resulting dataset

```r
head(df, 10)
```

```
## # A tibble: 100 x 3
##    constituency  second_party vote_share
##    <chr>         <chr>        <chr>     
##  1 Mühlshafen    Green        26.1%     
##  2 Benwerder     Conservative 24.8%     
##  3 Steffisfelden Green        25.7%     
##  4 Dillon        Conservative 27%       
##  5 Kilnard       Conservative 28.8%     
##  6 Granderry     Labour       26.1%     
##  7 Enkmelo       Liberal      26.8%     
##  8 Gänsernten    Green        26.6%     
##  9 Leonrau       Conservative 25%       
## 10 Zotburg       Conservative 28.4%     
## # ... with 90 more rows
…
